\relax 
\providecommand\hyper@newdestlabel[2]{}
\providecommand\HyperFirstAtBeginDocument{\AtBeginDocument}
\HyperFirstAtBeginDocument{\ifx\hyper@anchor\@undefined
\global\let\oldcontentsline\contentsline
\gdef\contentsline#1#2#3#4{\oldcontentsline{#1}{#2}{#3}}
\global\let\oldnewlabel\newlabel
\gdef\newlabel#1#2{\newlabelxx{#1}#2}
\gdef\newlabelxx#1#2#3#4#5#6{\oldnewlabel{#1}{{#2}{#3}}}
\AtEndDocument{\ifx\hyper@anchor\@undefined
\let\contentsline\oldcontentsline
\let\newlabel\oldnewlabel
\fi}
\fi}
\global\let\hyper@last\relax 
\gdef\HyperFirstAtBeginDocument#1{#1}
\providecommand\HyField@AuxAddToFields[1]{}
\providecommand\HyField@AuxAddToCoFields[2]{}
\@writefile{toc}{\contentsline {section}{\numberline {1}Good Facts to Know}{1}{section.1}}
\@writefile{toc}{\contentsline {subsection}{\numberline {1.1}Trees}{1}{subsection.1.1}}
\@writefile{toc}{\contentsline {subsection}{\numberline {1.2}Heaps}{1}{subsection.1.2}}
\@writefile{toc}{\contentsline {subsection}{\numberline {1.3}Max Heap Correctness}{1}{subsection.1.3}}
\@writefile{toc}{\contentsline {section}{\numberline {2}Hashing}{1}{section.2}}
\@writefile{toc}{\contentsline {subsection}{\numberline {2.1}Direct Address Table}{1}{subsection.2.1}}
\@writefile{toc}{\contentsline {subsection}{\numberline {2.2}Chaining}{1}{subsection.2.2}}
\@writefile{toc}{\contentsline {subsection}{\numberline {2.3}Hash Function}{1}{subsection.2.3}}
\@writefile{toc}{\contentsline {subsection}{\numberline {2.4}Open Addressing}{1}{subsection.2.4}}
\@writefile{toc}{\contentsline {subsection}{\numberline {2.5}Universal hashing}{1}{subsection.2.5}}
\@writefile{toc}{\contentsline {section}{\numberline {3}Heaps}{1}{section.3}}
\@writefile{lol}{\contentsline {lstlisting}{sample\textendash code/heapsort.py}{1}{lstlisting.-1}}
\@writefile{toc}{\contentsline {subsection}{\numberline {3.1}BuildMaxHeap}{1}{subsection.3.1}}
\@writefile{toc}{\contentsline {section}{\numberline {4}Disjoint Sets}{1}{section.4}}
\@writefile{toc}{\contentsline {section}{\numberline {5}Trees}{2}{section.5}}
\@writefile{toc}{\contentsline {subsection}{\numberline {5.1}Binary Trees}{2}{subsection.5.1}}
\@writefile{toc}{\contentsline {subsection}{\numberline {5.2}Binary Search Trees}{2}{subsection.5.2}}
\@writefile{toc}{\contentsline {subsection}{\numberline {5.3}AVL Trees}{2}{subsection.5.3}}
\@writefile{toc}{\contentsline {subsection}{\numberline {5.4}Red-black trees}{2}{subsection.5.4}}
\@writefile{toc}{\contentsline {section}{\numberline {6}Greedy algorithms}{2}{section.6}}
\@writefile{toc}{\contentsline {subsection}{\numberline {6.1}Scheduling problem}{2}{subsection.6.1}}
\@writefile{toc}{\contentsline {subsection}{\numberline {6.2}Huffman encoding}{2}{subsection.6.2}}
\@writefile{toc}{\contentsline {subsection}{\numberline {6.3}Dijkstra's Substructure}{2}{subsection.6.3}}
\@writefile{toc}{\contentsline {subsection}{\numberline {6.4}Differences Between Bellman Ford and Dijkstra}{2}{subsection.6.4}}
\@writefile{toc}{\contentsline {subsection}{\numberline {6.5}Making Change with Coins}{2}{subsection.6.5}}
\@writefile{toc}{\contentsline {subsection}{\numberline {6.6}Rental Car Problem}{2}{subsection.6.6}}
\@writefile{toc}{\contentsline {subsection}{\numberline {6.7}Lecture Hall Assignment Problem}{2}{subsection.6.7}}
\@writefile{toc}{\contentsline {section}{\numberline {7}Graphs}{2}{section.7}}
\@writefile{toc}{\contentsline {subsection}{\numberline {7.1}Edge Classification}{2}{subsection.7.1}}
\@writefile{toc}{\contentsline {subsection}{\numberline {7.2}Depth First Search}{2}{subsection.7.2}}
\@writefile{toc}{\contentsline {subsection}{\numberline {7.3}Breadth First Search}{2}{subsection.7.3}}
\@writefile{toc}{\contentsline {subsection}{\numberline {7.4}Parenthesis Theorem}{2}{subsection.7.4}}
\@writefile{toc}{\contentsline {subsection}{\numberline {7.5}White Space Theorem}{2}{subsection.7.5}}
\@writefile{toc}{\contentsline {subsection}{\numberline {7.6}Directed Acyclic Graph}{3}{subsection.7.6}}
\@writefile{toc}{\contentsline {subsubsection}{\numberline {7.6.1}Topological sort}{3}{subsubsection.7.6.1}}
\@writefile{lol}{\contentsline {lstlisting}{sample\textendash code/topological.py}{3}{lstlisting.-2}}
\@writefile{toc}{\contentsline {subsection}{\numberline {7.7}Minimum Spanning Tree}{3}{subsection.7.7}}
\@writefile{toc}{\contentsline {subsubsection}{\numberline {7.7.1}Kruskal's Algorithm}{3}{subsubsection.7.7.1}}
\@writefile{lol}{\contentsline {lstlisting}{sample\textendash code/kruskal.py}{3}{lstlisting.-3}}
\@writefile{toc}{\contentsline {subsubsection}{\numberline {7.7.2}Prim's Algorithm}{4}{subsubsection.7.7.2}}
\@writefile{toc}{\contentsline {subsection}{\numberline {7.8}Shortest Path Algorithms}{4}{subsection.7.8}}
\@writefile{toc}{\contentsline {subsubsection}{\numberline {7.8.1}Dijkstra's Algorithm}{4}{subsubsection.7.8.1}}
\@writefile{toc}{\contentsline {subsubsection}{\numberline {7.8.2}Bellman-Ford Algorithm}{4}{subsubsection.7.8.2}}
\@writefile{toc}{\contentsline {subsubsection}{\numberline {7.8.3}Code}{4}{subsubsection.7.8.3}}
\@writefile{lol}{\contentsline {lstlisting}{sample\textendash code/shortest\textendash path.py}{4}{lstlisting.-4}}
\@writefile{toc}{\contentsline {section}{\numberline {8}Bipartite Graphs}{4}{section.8}}
\@writefile{toc}{\contentsline {subsection}{\numberline {8.1}Gale Shapley}{4}{subsection.8.1}}
\@writefile{lol}{\contentsline {lstlisting}{sample\textendash code/gale\textendash shapley.py}{5}{lstlisting.-5}}
\@writefile{toc}{\contentsline {section}{\numberline {9}Network Flow}{5}{section.9}}
\@writefile{toc}{\contentsline {subsection}{\numberline {9.1}Ford-Fulkerson Algorithm}{5}{subsection.9.1}}
\@writefile{lol}{\contentsline {lstlisting}{sample\textendash code/ford\textendash fulkerson.py}{5}{lstlisting.-6}}
\@writefile{toc}{\contentsline {subsection}{\numberline {9.2}Dijkstra's Algorithm}{5}{subsection.9.2}}
\@writefile{toc}{\contentsline {subsection}{\numberline {9.3}Bellman Ford}{5}{subsection.9.3}}
\@writefile{toc}{\contentsline {section}{\numberline {10}Dynamic programming}{6}{section.10}}
\@writefile{toc}{\contentsline {subsection}{\numberline {10.1}Best alignment}{6}{subsection.10.1}}
\@writefile{toc}{\contentsline {section}{\numberline {11}Some Proofs}{6}{section.11}}
\@writefile{toc}{\contentsline {subsection}{\numberline {11.1}Minimum spanning trees}{6}{subsection.11.1}}
\@writefile{toc}{\contentsline {subsection}{\numberline {11.2}Shortest Paths}{6}{subsection.11.2}}
\@writefile{toc}{\contentsline {subsection}{\numberline {11.3}Graphs}{6}{subsection.11.3}}
\@writefile{toc}{\contentsline {subsection}{\numberline {11.4}DFS}{6}{subsection.11.4}}
\@writefile{toc}{\contentsline {subsection}{\numberline {11.5}BFS}{6}{subsection.11.5}}
\@writefile{toc}{\contentsline {subsection}{\numberline {11.6}Code}{6}{subsection.11.6}}
\@writefile{lol}{\contentsline {lstlisting}{sample\textendash code/graph\textendash search.py}{6}{lstlisting.-7}}
\@writefile{toc}{\contentsline {section}{\numberline {12}Divide and Conquer}{6}{section.12}}
\@writefile{toc}{\contentsline {subsection}{\numberline {12.1}Merge Sort}{6}{subsection.12.1}}
\@writefile{lol}{\contentsline {lstlisting}{sample\textendash code/merge\textendash sort.py}{6}{lstlisting.-8}}
\@writefile{toc}{\contentsline {subsection}{\numberline {12.2}Karatsuba Multiplication}{7}{subsection.12.2}}
\@writefile{lol}{\contentsline {lstlisting}{sample\textendash code/karatsuba.py}{7}{lstlisting.-9}}
\@writefile{toc}{\contentsline {subsection}{\numberline {12.3}Block Matrix Multiplication}{7}{subsection.12.3}}
\@writefile{toc}{\contentsline {subsection}{\numberline {12.4}Strassen's Algorithm}{7}{subsection.12.4}}
\@writefile{toc}{\contentsline {subsection}{\numberline {12.5}Dot Product}{7}{subsection.12.5}}
\@writefile{toc}{\contentsline {subsection}{\numberline {12.6}Fast Fourier}{7}{subsection.12.6}}
\@writefile{toc}{\contentsline {section}{\numberline {13}Amortized Analysis}{7}{section.13}}
\@writefile{toc}{\contentsline {subsection}{\numberline {13.1}Aggregate Analysis}{7}{subsection.13.1}}
\@writefile{toc}{\contentsline {subsection}{\numberline {13.2}Accounting Method}{7}{subsection.13.2}}
\@writefile{toc}{\contentsline {subsection}{\numberline {13.3}Potential Method}{7}{subsection.13.3}}
\@writefile{toc}{\contentsline {subsection}{\numberline {13.4}Infinite Binary Counter}{7}{subsection.13.4}}
\@writefile{toc}{\contentsline {subsection}{\numberline {13.5}Queue}{7}{subsection.13.5}}
\@writefile{toc}{\contentsline {section}{\numberline {14}Randomized Algorithms}{8}{section.14}}
\@writefile{toc}{\contentsline {subsection}{\numberline {14.1}Karger Contraction Algorithm}{8}{subsection.14.1}}
\@writefile{toc}{\contentsline {subsection}{\numberline {14.2}Maximum 3 Satisfiability}{8}{subsection.14.2}}
\@writefile{toc}{\contentsline {section}{\numberline {15}Common Recurrence Relations}{8}{section.15}}
\@writefile{toc}{\contentsline {section}{\numberline {16}Master Theorem}{8}{section.16}}
\@writefile{toc}{\contentsline {subsection}{\numberline {16.1}Proof}{8}{subsection.16.1}}
\@writefile{toc}{\contentsline {subsection}{\numberline {16.2}Height of Recursion Tree}{8}{subsection.16.2}}
\@writefile{toc}{\contentsline {section}{\numberline {17}Akra-Bazzi Theorem}{8}{section.17}}
\@writefile{toc}{\contentsline {section}{\numberline {18}Red Black Trees}{8}{section.18}}
\@writefile{toc}{\contentsline {subsection}{\numberline {18.1}Insertion}{9}{subsection.18.1}}
\@writefile{toc}{\contentsline {subsection}{\numberline {18.2}Code}{9}{subsection.18.2}}
\@writefile{lol}{\contentsline {lstlisting}{sample\textendash code/red\textendash black.py}{9}{lstlisting.-10}}
\@writefile{toc}{\contentsline {section}{\numberline {19}Interval Scheduling}{10}{section.19}}
\@writefile{lol}{\contentsline {lstlisting}{sample\textendash code/scheduling.py}{10}{lstlisting.-11}}
\@writefile{toc}{\contentsline {section}{\numberline {20}Insert into AVL Tree}{10}{section.20}}
\@writefile{toc}{\contentsline {section}{\numberline {21}Difference Between Prim's and Kruskal's Algorithm}{10}{section.21}}
\@writefile{toc}{\contentsline {section}{\numberline {22}Heap Sort}{11}{section.22}}
\@writefile{lol}{\contentsline {lstlisting}{sample\textendash code/heap\textendash sort.py}{11}{lstlisting.-12}}
\@writefile{toc}{\contentsline {section}{\numberline {23}Quick Sort}{11}{section.23}}
\@writefile{lol}{\contentsline {lstlisting}{sample\textendash code/quicksort.py}{11}{lstlisting.-13}}
\@writefile{toc}{\contentsline {section}{\numberline {24}Quick Find and Union}{11}{section.24}}
\@writefile{lol}{\contentsline {lstlisting}{sample\textendash code/union\textendash find.py}{11}{lstlisting.-14}}
\@writefile{toc}{\contentsline {section}{\numberline {25}Knapsack Problem}{11}{section.25}}
\@writefile{toc}{\contentsline {section}{\numberline {26}Minimum cut}{12}{section.26}}
