\relax 
\@writefile{toc}{\contentsline {section}{\numberline {1}Disjoint Sets}{1}}
\@writefile{toc}{\contentsline {section}{\numberline {2}Minimum Spanning Trees}{1}}
\@writefile{toc}{\contentsline {section}{\numberline {3}Greedy Algorithms}{2}}
\@writefile{toc}{\contentsline {subsection}{\numberline {3.1}Demonstrative Code}{2}}
\@writefile{toc}{\contentsline {subsection}{\numberline {3.2}Optimal Substructure}{4}}
\@writefile{toc}{\contentsline {subsection}{\numberline {3.3}Algorithm Proof of Correctness and Proof of Running Time}{4}}
\@writefile{toc}{\contentsline {section}{\numberline {4}Shortest Paths}{4}}
\@writefile{toc}{\contentsline {section}{\numberline {5}Bipartite Graphs}{4}}
\@writefile{toc}{\contentsline {subsection}{\numberline {5.1}Definition of a Bipartite Graph}{4}}
\@writefile{toc}{\contentsline {subsection}{\numberline {5.2}Direct Proof of Necessary Condition}{4}}
\@writefile{toc}{\contentsline {subsection}{\numberline {5.3}Proof by Contradiction of Sufficient Condition}{4}}
