\relax 
\@writefile{toc}{\contentsline {section}{\numberline {1}Disjoint Sets}{1}}
\@writefile{toc}{\contentsline {section}{\numberline {2}Minimum Spanning Trees}{1}}
\@writefile{toc}{\contentsline {section}{\numberline {3}Greedy Algorithms REVISED Using Procedural Pseudocode}{2}}
\@writefile{toc}{\contentsline {subsection}{\numberline {3.1}Demonstrative Pseudocode}{2}}
\@writefile{toc}{\contentsline {subsection}{\numberline {3.2}Upper Bound}{4}}
\@writefile{toc}{\contentsline {subsection}{\numberline {3.3}Optimal Substructure}{4}}
\@writefile{toc}{\contentsline {section}{\numberline {4}Greedy Algorithms}{5}}
\@writefile{toc}{\contentsline {subsection}{\numberline {4.1}Demonstrative Code}{6}}
\@writefile{toc}{\contentsline {section}{\numberline {5}Bipartite Graphs}{7}}
\@writefile{toc}{\contentsline {subsection}{\numberline {5.1}Definition of a Bipartite Graph}{7}}
\@writefile{toc}{\contentsline {subsection}{\numberline {5.2}Direct Proof of Necessary Condition}{7}}
\@writefile{toc}{\contentsline {subsection}{\numberline {5.3}Proof by Contradiction of Sufficient Condition}{7}}
