4
0 8
9
0 1 1
0 2 3
1 2 1
1 3 0
2 4 3
2 5 1
3 4 0
3 6 0
3 7 0
4 5 3
5 7 4
6 7 0
6 8 0
7 8 4
4
0 8
9
0 1 1
0 2 3
1 2 1
1 3 0
2 4 3
2 5 1
3 4 0
3 6 0
3 7 0
4 5 3
5 7 4
6 7 0
6 8 0
7 8 4
4
0 8
9
0 1 1
0 2 3
1 2 1
1 3 0
2 4 3
2 5 1
3 4 0
3 6 0
3 7 0
4 5 3
5 7 4
6 7 0
6 8 0
7 8 4
4
0 8
9
0 1 1
0 2 3
1 2 1
1 3 0
2 4 3
2 5 1
3 4 0
3 6 0
3 7 0
4 5 3
5 7 4
6 7 0
6 8 0
7 8 4
4
0 8
9
0 1 1
0 2 3
1 2 1
1 3 0
2 4 3
2 5 1
3 4 0
3 6 0
3 7 0
4 5 3
5 7 4
6 7 0
6 8 0
7 8 4
12
0 8
9
0 1 8
0 2 4
1 2 0
1 3 8
2 4 3
2 5 1
3 4 0
3 6 3
3 7 5
4 5 3
5 7 4
6 7 1
6 8 2
7 8 10
12
0 8
9
0 1 8
0 2 4
1 2 0
1 3 8
2 4 3
2 5 1
3 4 0
3 6 3
3 7 5
4 5 3
5 7 4
6 7 1
6 8 2
7 8 10
12
0 8
9
0 1 8
0 2 4
1 2 0
1 3 8
2 4 3
2 5 1
3 4 0
3 6 3
3 7 5
4 5 3
5 7 4
6 7 1
6 8 2
7 8 10
4
0 8
9
0 1 1
0 2 3
1 2 1
1 3 0
2 4 3
2 5 1
3 4 0
3 6 0
3 7 0
4 5 3
5 7 4
6 7 0
6 8 0
7 8 4
12
0 8
9
0 1 8
0 2 4
1 2 0
1 3 8
2 4 3
2 5 1
3 4 0
3 6 3
3 7 5
4 5 3
5 7 4
6 7 1
6 8 2
7 8 10
12
0 8
9
0 1 8
0 2 4
1 2 0
1 3 8
2 4 3
2 5 1
3 4 0
3 6 3
3 7 5
4 5 3
5 7 4
6 7 1
6 8 2
7 8 10
12
0 8
9
0 1 8
0 2 4
1 2 0
1 3 8
2 4 3
2 5 1
3 4 0
3 6 3
3 7 5
4 5 3
5 7 4
6 7 1
6 8 2
7 8 10
12
0 8
9
0 1 8
0 2 4
1 2 0
1 3 8
2 4 3
2 5 1
3 4 0
3 6 3
3 7 5
4 5 3
5 7 4
6 7 1
6 8 2
7 8 10
4
0 8
9
0 1 1
0 2 3
1 2 1
1 3 0
2 4 3
2 5 1
3 4 0
3 6 0
3 7 0
4 5 3
5 7 4
6 7 0
6 8 0
7 8 4
12
0 8
9
0 1 8
0 2 4
1 2 0
1 3 8
2 4 3
2 5 1
3 4 0
3 6 3
3 7 5
4 5 3
5 7 4
6 7 1
6 8 2
7 8 10
9
0 8
9
0 1 9
0 2 0
1 2 1
1 3 8
2 4 0
2 5 1
3 4 3
3 6 0
3 7 5
4 5 3
5 7 4
6 7 0
6 8 0
7 8 9
12
0 8
9
0 1 8
0 2 4
1 2 0
1 3 8
2 4 3
2 5 1
3 4 0
3 6 3
3 7 5
4 5 3
5 7 4
6 7 1
6 8 2
7 8 10
12
0 8
9
0 1 8
0 2 4
1 2 0
1 3 8
2 4 3
2 5 1
3 4 0
3 6 3
3 7 5
4 5 3
5 7 4
6 7 1
6 8 2
7 8 10
12
0 8
9
0 1 8
0 2 4
1 2 0
1 3 8
2 4 3
2 5 1
3 4 0
3 6 3
3 7 5
4 5 3
5 7 4
6 7 1
6 8 2
7 8 10
12
0 8
9
0 1 8
0 2 4
1 2 0
1 3 8
2 4 3
2 5 1
3 4 0
3 6 3
3 7 5
4 5 3
5 7 4
6 7 1
6 8 2
7 8 10
