\relax 
\providecommand\hyper@newdestlabel[2]{}
\providecommand\HyperFirstAtBeginDocument{\AtBeginDocument}
\HyperFirstAtBeginDocument{\ifx\hyper@anchor\@undefined
\global\let\oldcontentsline\contentsline
\gdef\contentsline#1#2#3#4{\oldcontentsline{#1}{#2}{#3}}
\global\let\oldnewlabel\newlabel
\gdef\newlabel#1#2{\newlabelxx{#1}#2}
\gdef\newlabelxx#1#2#3#4#5#6{\oldnewlabel{#1}{{#2}{#3}}}
\AtEndDocument{\ifx\hyper@anchor\@undefined
\let\contentsline\oldcontentsline
\let\newlabel\oldnewlabel
\fi}
\fi}
\global\let\hyper@last\relax 
\gdef\HyperFirstAtBeginDocument#1{#1}
\providecommand\HyField@AuxAddToFields[1]{}
\providecommand\HyField@AuxAddToCoFields[2]{}
\@writefile{lof}{\deactivateaddvspace  }
\@writefile{lot}{\deactivateaddvspace  }
\@writefile{toc}{\contentsline {section}{\numberline {1}Ford-Fulkerson}{1}{section.1}}
\@writefile{toc}{\contentsline {section}{\numberline {2}Bellman-Ford}{1}{section.2}}
\@writefile{toc}{\contentsline {section}{\numberline {3}Monotonically increasing subsequence}{1}{section.3}}
\@writefile{toc}{\contentsline {subsection}{\numberline {3.1}Algorithm Background and Proof}{1}{subsection.3.1}}
\@writefile{toc}{\contentsline {subsection}{\numberline {3.2}Pseudocode}{2}{subsection.3.2}}
\@writefile{toc}{\contentsline {subsection}{\numberline {3.3}Alternative Code}{3}{subsection.3.3}}
\@writefile{toc}{\contentsline {section}{\numberline {4}Apply Neddleman-Wunch for sequence alignment}{3}{section.4}}
