\BOOKMARK [1][-]{section.1}{Divide and Conquer Algorithm}{}% 1
\BOOKMARK [1][-]{section.2}{Randomized Quicksort}{}% 2
\BOOKMARK [2][-]{subsection.2.1}{Best Case}{section.2}% 3
\BOOKMARK [2][-]{subsection.2.2}{Worst Case}{section.2}% 4
\BOOKMARK [1][-]{section.3}{Distinct Numbers}{}% 5
\BOOKMARK [1][-]{section.4}{Consider example from lecture}{}% 6
\BOOKMARK [1][-]{section.5}{Bonus Points}{}% 7
