\relax 
\@writefile{toc}{\contentsline {section}{\numberline {1}Hashing with Division and Multiplication Methods}{1}}
\@writefile{toc}{\contentsline {section}{\numberline {2}Demonstration of heapsort execution}{1}}
\@writefile{toc}{\contentsline {section}{\numberline {3}Collisions in random hash function}{2}}
\@writefile{toc}{\contentsline {section}{\numberline {4}Binary trees}{3}}
\@writefile{toc}{\contentsline {section}{\numberline {5}Give a recurrence for possible binary search trees with $n$ keys}{3}}
\@writefile{lof}{\contentsline {figure}{\numberline {1}{\ignorespaces 100-50-4096.png}}{4}}
\@writefile{lof}{\contentsline {figure}{\numberline {2}{\ignorespaces 100-50-40960.png}}{4}}
\@writefile{toc}{\contentsline {section}{\numberline {6}Figures}{4}}
\@writefile{lof}{\contentsline {figure}{\numberline {3}{\ignorespaces 100-99-4096.png}}{5}}
\@writefile{lof}{\contentsline {figure}{\numberline {4}{\ignorespaces 20-10-4096.png}}{5}}
\@writefile{lof}{\contentsline {figure}{\numberline {5}{\ignorespaces 25-10-4096.png}}{5}}
\@writefile{lof}{\contentsline {figure}{\numberline {6}{\ignorespaces 4-2-4096.png}}{6}}
